#FIG 3.2  Produced by xfig version 3.2.6a
Landscape
Center
Metric
A4
100.00
Single
-2
1200 2
2 1 0 1 0 7 50 -1 -1 0.000 0 0 -1 0 0 2
	 1935 5400 7200 10575
2 1 0 1 0 7 50 -1 -1 0.000 0 0 -1 0 0 2
	 1350 7110 12510 9900
2 1 0 1 0 7 50 -1 -1 0.000 0 0 -1 0 0 2
	 2520 9045 12105 7020
2 1 0 1 0 7 50 -1 -1 0.000 0 0 -1 0 0 2
	 3960 9945 12735 5220
2 1 0 1 0 7 50 -1 -1 0.000 0 0 -1 0 0 2
	 1665 4095 5940 10530
2 1 0 1 0 7 50 -1 -1 0.000 0 0 -1 0 0 2
	 11430 3195 6570 10440
3 0 0 1 0 7 50 -1 -1 0.000 0 0 0 6
	 1845 3150 3420 7335 5400 8325 7785 8100 9225 6885 10665 3195
	 0.000 1.000 1.000 1.000 1.000 0.000
4 0 0 50 -1 0 16 0.0000 4 180 585 10980 4230 Cut 1\001
4 0 0 50 -1 0 16 0.0000 4 180 585 11880 6030 Cut 2\001
4 0 0 50 -1 0 16 0.0000 4 180 585 10800 7650 Cut 3\001
4 0 0 50 -1 0 16 0.0000 4 180 525 10170 9900 cut 4\001
4 0 0 50 -1 0 16 0.0000 4 180 585 6300 9450 Cut 5\001
4 0 0 50 -1 0 16 0.0000 4 180 585 4500 10305 Cut 6\001
