\relax 
\providecommand\hyper@newdestlabel[2]{}
\providecommand\HyperFirstAtBeginDocument{\AtBeginDocument}
\HyperFirstAtBeginDocument{\ifx\hyper@anchor\@undefined
\global\let\oldcontentsline\contentsline
\gdef\contentsline#1#2#3#4{\oldcontentsline{#1}{#2}{#3}}
\global\let\oldnewlabel\newlabel
\gdef\newlabel#1#2{\newlabelxx{#1}#2}
\gdef\newlabelxx#1#2#3#4#5#6{\oldnewlabel{#1}{{#2}{#3}}}
\AtEndDocument{\ifx\hyper@anchor\@undefined
\let\contentsline\oldcontentsline
\let\newlabel\oldnewlabel
\fi}
\fi}
\global\let\hyper@last\relax 
\gdef\HyperFirstAtBeginDocument#1{#1}
\providecommand\HyField@AuxAddToFields[1]{}
\providecommand\HyField@AuxAddToCoFields[2]{}
\@writefile{toc}{\contentsline {part}{I\hspace  {1em}Introduction}{6}{part.1}}
\@writefile{toc}{\contentsline {chapter}{\numberline {1}General context}{7}{chapter.1}}
\@writefile{lof}{\addvspace {10\p@ }}
\@writefile{lot}{\addvspace {10\p@ }}
\citation{fleming2006controlled}
\citation{fleming2006controlled}
\citation{ishii1990viscosity}
\@writefile{toc}{\contentsline {chapter}{\numberline {2}General mathematical setting}{10}{chapter.2}}
\@writefile{lof}{\addvspace {10\p@ }}
\@writefile{lot}{\addvspace {10\p@ }}
\newlabel{eds}{{2.1}{10}{General mathematical setting}{equation.2.0.1}{}}
\newlabel{hjb}{{2.1}{10}{General mathematical setting}{equation.2.0.1}{}}
\newlabel{eds1}{{2.2}{11}{General mathematical setting}{equation.2.0.2}{}}
\newlabel{eds2}{{2.3}{11}{General mathematical setting}{equation.2.0.3}{}}
\@writefile{toc}{\contentsline {part}{II\hspace  {1em}Useful tools for stochastic control}{12}{part.2}}
\@writefile{toc}{\contentsline {chapter}{\numberline {3}The grids and their interpolators}{13}{chapter.3}}
\@writefile{lof}{\addvspace {10\p@ }}
\@writefile{lot}{\addvspace {10\p@ }}
\newlabel{gridChapter}{{3}{13}{The grids and their interpolators}{chapter.3}{}}
\@writefile{lol}{\contentsline {lstlisting}{../StOpt/StOpt/core/grids/GridIterator.h}{13}{lstlisting.3.-1}}
\@writefile{lol}{\contentsline {lstlisting}{../StOpt/StOpt/core/grids/Interpolator.h}{15}{lstlisting.3.-3}}
\@writefile{lol}{\contentsline {lstlisting}{../StOpt/StOpt/core/grids/SpaceGrid.h}{16}{lstlisting.3.-4}}
\@writefile{toc}{\contentsline {section}{\numberline {3.1}Linear grids}{17}{section.3.1}}
\@writefile{toc}{\contentsline {subsection}{\numberline {3.1.1}Definition and C++ API}{17}{subsection.3.1.1}}
\newlabel{lineargridsection}{{3.1.1}{17}{Definition and C++ API}{subsection.3.1.1}{}}
\@writefile{lof}{\contentsline {figure}{\numberline {3.1}{\ignorespaces 2D general grid\relax }}{18}{figure.caption.2}}
\providecommand*\caption@xref[2]{\@setref\relax\@undefined{#1}}
\newlabel{genGrid}{{3.1}{18}{2D general grid\relax }{figure.caption.2}{}}
\@writefile{lof}{\contentsline {figure}{\numberline {3.2}{\ignorespaces 2D regular grid\relax }}{18}{figure.caption.3}}
\newlabel{regGrid}{{3.2}{18}{2D regular grid\relax }{figure.caption.3}{}}
\newlabel{InterpRegulier}{{3.1}{19}{Definition and C++ API}{equation.3.1.1}{}}
\@writefile{toc}{\contentsline {subsection}{\numberline {3.1.2}The python API}{19}{subsection.3.1.2}}
\@writefile{lol}{\contentsline {lstlisting}{../StOpt/test/python/unit/grids/testRegularGrids.py}{19}{lstlisting.3.-9}}
\@writefile{lol}{\contentsline {lstlisting}{../StOpt/test/python/unit/grids/testGrids.py}{20}{lstlisting.3.-10}}
\@writefile{toc}{\contentsline {section}{\numberline {3.2}Legendre grids}{20}{section.3.2}}
\newlabel{legendregridsection}{{3.2}{20}{Legendre grids}{section.3.2}{}}
\@writefile{toc}{\contentsline {subsection}{\numberline {3.2.1}Approximation of a function in 1 dimension}{21}{subsection.3.2.1}}
\newlabel{fig::rungeEffect1}{{3.3a}{22}{\relax }{figure.caption.4}{}}
\newlabel{sub@fig::rungeEffect1}{{a}{22}{\relax }{figure.caption.4}{}}
\newlabel{fig::rungeEffect2}{{3.3b}{22}{\relax }{figure.caption.4}{}}
\newlabel{sub@fig::rungeEffect2}{{b}{22}{\relax }{figure.caption.4}{}}
\newlabel{fig::rungeEffect3}{{3.3c}{22}{\relax }{figure.caption.4}{}}
\newlabel{sub@fig::rungeEffect3}{{c}{22}{\relax }{figure.caption.4}{}}
\newlabel{fig::rungeEffect4}{{3.3d}{22}{\relax }{figure.caption.4}{}}
\newlabel{sub@fig::rungeEffect4}{{d}{22}{\relax }{figure.caption.4}{}}
\@writefile{lof}{\contentsline {figure}{\numberline {3.3}{\ignorespaces Runge function $\frac  {1}{1 + 25 x^2}$ and its polynomial interpolations with degrees 3, 4, 8, and 18.\relax }}{22}{figure.caption.4}}
\newlabel{fig::rungeEffect}{{3.3}{22}{Runge function $\frac {1}{1 + 25 x^2}$ and its polynomial interpolations with degrees 3, 4, 8, and 18.\relax }{figure.caption.4}{}}
\citation{azaiez1993methodes}
\@writefile{lof}{\contentsline {figure}{\numberline {3.4}{\ignorespaces Interpolation with Gauss--Legendre--Lobatto grids\relax }}{23}{figure.caption.5}}
\newlabel{fig:gllRunge}{{3.4}{23}{Interpolation with Gauss--Legendre--Lobatto grids\relax }{figure.caption.5}{}}
\citation{quarteroni2000methodes}
\citation{feinerman1974polynomial}
\citation{soardi1984serie}
\@writefile{toc}{\contentsline {subsection}{\numberline {3.2.2}Extension in dimension $d$}{24}{subsection.3.2.2}}
\citation{warin2016some}
\@writefile{lof}{\contentsline {figure}{\numberline {3.5}{\ignorespaces Gauss--Legendre--Lobatto points on $2 \times 2 $ meshes.\relax }}{25}{figure.caption.6}}
\newlabel{GLLpoints2D}{{3.5}{25}{Gauss--Legendre--Lobatto points on $2 \times 2 $ meshes.\relax }{figure.caption.6}{}}
\@writefile{toc}{\contentsline {subsection}{\numberline {3.2.3}Troncature}{25}{subsection.3.2.3}}
\@writefile{toc}{\contentsline {subsection}{\numberline {3.2.4}The C++ API}{26}{subsection.3.2.4}}
\@writefile{lol}{\contentsline {lstlisting}{../StOpt/StOpt/core/grids/InterpolatorSpectral.h}{26}{lstlisting.3.-13}}
\@writefile{toc}{\contentsline {subsection}{\numberline {3.2.5}The python API}{28}{subsection.3.2.5}}
\@writefile{lol}{\contentsline {lstlisting}{../StOpt/test/python/unit/grids/testLegendreGrid.py}{28}{lstlisting.3.-17}}
\citation{pfluger2010spatially}
\@writefile{toc}{\contentsline {section}{\numberline {3.3}Sparse grids}{29}{section.3.3}}
\newlabel{sec::Sparse}{{3.3}{29}{Sparse grids}{section.3.3}{}}
\@writefile{toc}{\contentsline {subsection}{\numberline {3.3.1}The linear sparse grid method}{29}{subsection.3.3.1}}
\newlabel{linearSection}{{3.3.1}{29}{The linear sparse grid method}{subsection.3.3.1}{}}
\citation{pfluger2010spatially}
\@writefile{lof}{\contentsline {figure}{\numberline {3.6}{\ignorespaces One dimensional $W^{(L)}$ spaces: $W_1^{(L)}$, $W_2^{(L)}$, $W_3^{(L)}$, $W_4^{(L)}$ and the nodal representation $W^{(L,N)}_4$ \relax }}{30}{figure.caption.7}}
\newlabel{figWFunction1D}{{3.6}{30}{One dimensional $W^{(L)}$ spaces: $W_1^{(L)}$, $W_2^{(L)}$, $W_3^{(L)}$, $W_4^{(L)}$ and the nodal representation $W^{(L,N)}_4$ \relax }{figure.caption.7}{}}
\newlabel{classSparse}{{3.4}{30}{The linear sparse grid method}{equation.3.3.4}{}}
\newlabel{classNodl}{{3.5}{30}{The linear sparse grid method}{equation.3.3.5}{}}
\newlabel{basisRecons}{{3.6}{30}{The linear sparse grid method}{}{}}
\citation{pfluger2010spatially}
\@writefile{lof}{\contentsline {figure}{\numberline {3.7}{\ignorespaces Example of hierarchical coefficients\relax }}{31}{figure.caption.8}}
\newlabel{figWSurplus1D}{{3.7}{31}{Example of hierarchical coefficients\relax }{figure.caption.8}{}}
\@writefile{lof}{\contentsline {figure}{\numberline {3.8}{\ignorespaces Node involved in linear, quadratic and cubic representation of a function at node $m$ and $n$\relax }}{31}{figure.caption.9}}
\newlabel{figFatherTree}{{3.8}{31}{Node involved in linear, quadratic and cubic representation of a function at node $m$ and $n$\relax }{figure.caption.9}{}}
\@writefile{lof}{\contentsline {figure}{\numberline {3.9}{\ignorespaces The two dimensional subspace $W_{\relax $\@@underline {\hbox {l}}\mathsurround \z@ $\relax }^{(L)}$ up to $l=3$ in each dimension. The additional hierarchical functions corresponding to an approximation on the full grid are given in dashed lines.\relax }}{31}{figure.caption.10}}
\newlabel{figureSubSpace2D}{{3.9}{31}{The two dimensional subspace $W_{\underline l}^{(L)}$ up to $l=3$ in each dimension. The additional hierarchical functions corresponding to an approximation on the full grid are given in dashed lines.\relax }{figure.caption.10}{}}
\citation{bungartz1992dunne}
\citation{bungartz1996concepts}
\citation{bungartz1997multigrid}
\citation{bungartz1996concepts}
\citation{bungartz1997multigrid}
\@writefile{lof}{\contentsline {figure}{\numberline {3.10}{\ignorespaces One dimensional $W^{(L)}$ spaces with linear functions with ``exact'' boundary (left) and ``modified'' boundary (right): $W_1^{(L)}$, $W_2^{(L)}$, $W_3^{(L)}$, $W_4^{(L)}$ \relax }}{32}{figure.caption.11}}
\newlabel{figWFunction1DBound}{{3.10}{32}{One dimensional $W^{(L)}$ spaces with linear functions with ``exact'' boundary (left) and ``modified'' boundary (right): $W_1^{(L)}$, $W_2^{(L)}$, $W_3^{(L)}$, $W_4^{(L)}$ \relax }{figure.caption.11}{}}
\@writefile{lof}{\contentsline {figure}{\numberline {3.11}{\ignorespaces Sparse grid in dimension 2 and 3 with boundary points\relax }}{32}{figure.caption.12}}
\newlabel{fig2DBound}{{3.11}{32}{Sparse grid in dimension 2 and 3 with boundary points\relax }{figure.caption.12}{}}
\newlabel{ErrorInterpLin}{{3.6}{32}{The linear sparse grid method}{equation.3.3.6}{}}
\citation{bungartz1996concepts}
\@writefile{lof}{\contentsline {figure}{\numberline {3.12}{\ignorespaces Sparse grid in dimension 2 and 3 without boundary points\relax }}{33}{figure.caption.13}}
\newlabel{fig2DNoBound}{{3.12}{33}{Sparse grid in dimension 2 and 3 without boundary points\relax }{figure.caption.13}{}}
\@writefile{toc}{\contentsline {section}{\numberline {3.4}High order sparse grid methods}{33}{section.3.4}}
\newlabel{highOrderSection}{{3.4}{33}{High order sparse grid methods}{section.3.4}{}}
\citation{bungartz1992dunne}
\citation{bungartz1996concepts}
\citation{bungartz1997multigrid}
\@writefile{lof}{\contentsline {figure}{\numberline {3.13}{\ignorespaces One dimensional $W^{(Q)}$ spaces with quadratic with ``exact'' boundary (left) and ``modified'' boundary (right): $W_1^{(Q)}$, $W_2^{(Q)}$, $W_3^{(Q)}$, $W_4^{(Q)}$ \relax }}{34}{figure.caption.14}}
\newlabel{figWFunction1DQuadBound}{{3.13}{34}{One dimensional $W^{(Q)}$ spaces with quadratic with ``exact'' boundary (left) and ``modified'' boundary (right): $W_1^{(Q)}$, $W_2^{(Q)}$, $W_3^{(Q)}$, $W_4^{(Q)}$ \relax }{figure.caption.14}{}}
\citation{bungartz2004sparse}
\citation{griebel1998adaptive}
\citation{griebel2005sparse}
\citation{ma2009adaptive}
\citation{gerstner2003dimension}
\citation{jakeman2011local}
\@writefile{lof}{\contentsline {figure}{\numberline {3.14}{\ignorespaces One dimensional $W^{(C)}$ spaces with cubic and ``exact'' boundary (left) and ``modified'' boundary (right): $W_1^{(C)}$, $W_2^{(C)}$, $W_3^{(C)}$, $W_4^{(C)}$ \relax }}{35}{figure.caption.15}}
\newlabel{figWFunction1DCubicBound}{{3.14}{35}{One dimensional $W^{(C)}$ spaces with cubic and ``exact'' boundary (left) and ``modified'' boundary (right): $W_1^{(C)}$, $W_2^{(C)}$, $W_3^{(C)}$, $W_4^{(C)}$ \relax }{figure.caption.15}{}}
\@writefile{toc}{\contentsline {section}{\numberline {3.5}Anisotropy}{35}{section.3.5}}
\newlabel{anisotropicSparse}{{3.7}{35}{Anisotropy}{equation.3.5.7}{}}
\@writefile{toc}{\contentsline {section}{\numberline {3.6}Adaptation}{35}{section.3.6}}
\citation{gerstner2003dimension}
\@writefile{loa}{\contentsline {algorithm}{\numberline {1}{\ignorespaces Dimension refinement for a given tolerance $\eta $\relax }}{36}{algorithm.1}}
\newlabel{dimRef}{{1}{36}{Dimension refinement for a given tolerance $\eta $\relax }{algorithm.1}{}}
\@writefile{loa}{\contentsline {algorithm}{\numberline {2}{\ignorespaces Dimension coarsening for a given tolerance $\eta $\relax }}{37}{algorithm.2}}
\newlabel{dimCoars}{{2}{37}{Dimension coarsening for a given tolerance $\eta $\relax }{algorithm.2}{}}
\@writefile{toc}{\contentsline {section}{\numberline {3.7}C++ API}{37}{section.3.7}}
\@writefile{toc}{\contentsline {section}{\numberline {3.8}Python API}{42}{section.3.8}}
\@writefile{lol}{\contentsline {lstlisting}{../StOpt/test/python/unit/grids/testSparseGrids.py}{42}{lstlisting.3.-36}}
\citation{wand1994fast}
\citation{scott2015multivariate}
\@writefile{toc}{\contentsline {chapter}{\numberline {4}Introducing the regression resolution}{45}{chapter.4}}
\@writefile{lof}{\addvspace {10\p@ }}
\@writefile{lot}{\addvspace {10\p@ }}
\newlabel{sec::regression}{{4}{45}{Introducing the regression resolution}{chapter.4}{}}
\newlabel{regressed}{{4.1}{45}{Introducing the regression resolution}{equation.4.0.1}{}}
\newlabel{reg}{{4.3}{45}{Introducing the regression resolution}{equation.4.0.3}{}}
\newlabel{eq: normal eq}{{4.4}{45}{Introducing the regression resolution}{equation.4.0.4}{}}
\@writefile{lof}{\contentsline {figure}{\numberline {4.1}{\ignorespaces Evaluation grid: rotation\relax }}{46}{figure.caption.16}}
\newlabel{fig:evaluation grid}{{4.1}{46}{Evaluation grid: rotation\relax }{figure.caption.16}{}}
\@writefile{toc}{\contentsline {section}{\numberline {4.1}C++ global API}{46}{section.4.1}}
\@writefile{lol}{\contentsline {lstlisting}{../StOpt/StOpt/regression/BaseRegression.h}{46}{lstlisting.4.-37}}
\citation{bouchard2012monte}
\@writefile{toc}{\contentsline {section}{\numberline {4.2}Adapted local polynomial basis with same probability}{51}{section.4.2}}
\newlabel{subsec::local}{{4.2}{51}{Adapted local polynomial basis with same probability}{section.4.2}{}}
\@writefile{toc}{\contentsline {subsection}{\numberline {4.2.1}Description of the method}{51}{subsection.4.2.1}}
\citation{magnani2009convex}
\@writefile{lof}{\contentsline {figure}{\numberline {4.2}{\ignorespaces  Support of 2D function basis\relax }}{52}{figure.caption.17}}
\newlabel{Mesh}{{4.2}{52}{Support of 2D function basis\relax }{figure.caption.17}{}}
\@writefile{toc}{\contentsline {subsection}{\numberline {4.2.2}C++ API}{52}{subsection.4.2.2}}
\@writefile{toc}{\contentsline {subsubsection}{The constant per cell approximation}{52}{section*.18}}
\newlabel{sec:ApiLocalConst}{{4.2.2}{52}{The constant per cell approximation}{section*.18}{}}
\@writefile{toc}{\contentsline {subsubsection}{The linear per cell approximation}{53}{section*.19}}
\citation{magnani2009convex}
\@writefile{toc}{\contentsline {subsubsection}{An example in the linear case}{54}{section*.20}}
\@writefile{toc}{\contentsline {subsection}{\numberline {4.2.3}Python API}{55}{subsection.4.2.3}}
\newlabel{sec:pythonRegAdapt}{{4.2.3}{55}{Python API}{subsection.4.2.3}{}}
\@writefile{toc}{\contentsline {section}{\numberline {4.3}Adapted local basis by K-Means clustering methods}{55}{section.4.3}}
\@writefile{loa}{\contentsline {algorithm}{\numberline {3}{\ignorespaces Lloyd algorithm\relax }}{55}{algorithm.3}}
\newlabel{LloydAlgo}{{3}{55}{Lloyd algorithm\relax }{algorithm.3}{}}
\@writefile{loa}{\contentsline {algorithm}{\numberline {4}{\ignorespaces Recursive 1D Lloyd algorithm\relax }}{56}{algorithm.4}}
\newlabel{algo:LloydAlgo1DR}{{4}{56}{Recursive 1D Lloyd algorithm\relax }{algorithm.4}{}}
\@writefile{loa}{\contentsline {algorithm}{\numberline {5}{\ignorespaces Modified Lloyd algorithm\relax }}{56}{algorithm.5}}
\newlabel{algo:LloydAlgoModified}{{5}{56}{Modified Lloyd algorithm\relax }{algorithm.5}{}}
\@writefile{lof}{\contentsline {figure}{\numberline {4.3}{\ignorespaces Possible 2D partition due to modified K-Means algorithm \relax }}{57}{figure.caption.21}}
\newlabel{fig:2DModifCluster}{{4.3}{57}{Possible 2D partition due to modified K-Means algorithm \relax }{figure.caption.21}{}}
\@writefile{toc}{\contentsline {subsection}{\numberline {4.3.1}C++ API}{57}{subsection.4.3.1}}
\@writefile{toc}{\contentsline {subsection}{\numberline {4.3.2}Python api}{58}{subsection.4.3.2}}
\@writefile{toc}{\contentsline {section}{\numberline {4.4}Local polynomial basis with meshes of same size}{58}{section.4.4}}
\newlabel{subsec::localSameSize}{{4.4}{58}{Local polynomial basis with meshes of same size}{section.4.4}{}}
\@writefile{toc}{\contentsline {section}{\numberline {4.5}C++ API}{58}{section.4.5}}
\@writefile{toc}{\contentsline {subsection}{\numberline {4.5.1}The constant per cell approximation}{58}{subsection.4.5.1}}
\@writefile{toc}{\contentsline {subsection}{\numberline {4.5.2}The linear per cell approximation}{59}{subsection.4.5.2}}
\@writefile{toc}{\contentsline {subsection}{\numberline {4.5.3}An example in the linear case}{59}{subsection.4.5.3}}
\@writefile{toc}{\contentsline {subsection}{\numberline {4.5.4}Python API}{60}{subsection.4.5.4}}
\@writefile{toc}{\contentsline {section}{\numberline {4.6}Sparse grid regressor}{60}{section.4.6}}
\newlabel{sec:sparseGridReg}{{4.6}{60}{Sparse grid regressor}{section.4.6}{}}
\@writefile{toc}{\contentsline {subsection}{\numberline {4.6.1}C++ API}{60}{subsection.4.6.1}}
\@writefile{toc}{\contentsline {subsection}{\numberline {4.6.2}Python API}{61}{subsection.4.6.2}}
\@writefile{toc}{\contentsline {section}{\numberline {4.7}Global polynomial basis}{61}{section.4.7}}
\newlabel{sec:globPol}{{4.7}{61}{Global polynomial basis}{section.4.7}{}}
\@writefile{toc}{\contentsline {subsection}{\numberline {4.7.1}Description of the method}{61}{subsection.4.7.1}}
\@writefile{toc}{\contentsline {subsection}{\numberline {4.7.2}C++ API}{62}{subsection.4.7.2}}
\@writefile{toc}{\contentsline {subsection}{\numberline {4.7.3}Python API}{63}{subsection.4.7.3}}
\@writefile{toc}{\contentsline {section}{\numberline {4.8}Kernel regression}{63}{section.4.8}}
\newlabel{sec:kernelReg}{{4.8}{63}{Kernel regression}{section.4.8}{}}
\newlabel{eq:localdens}{{4.7}{63}{Kernel regression}{equation.4.8.7}{}}
\newlabel{eq:localreg0}{{4.8}{63}{Kernel regression}{equation.4.8.8}{}}
\citation{langrene2017fast}
\newlabel{eq:localreg1}{{4.9}{64}{Kernel regression}{equation.4.8.9}{}}
\@writefile{toc}{\contentsline {subsection}{\numberline {4.8.1}The univariate case}{64}{subsection.4.8.1}}
\newlabel{eq:sum_unidim}{{4.10}{64}{The univariate case}{equation.4.8.10}{}}
\newlabel{eq:parabolic-kernel-development}{{4.11}{64}{The univariate case}{equation.4.8.11}{}}
\citation{langrene2017fast}
\newlabel{eq:SpqLR}{{4.12}{65}{The univariate case}{equation.4.8.12}{}}
\newlabel{eq:1d_updating}{{4.13}{65}{The univariate case}{equation.4.8.13}{}}
\@writefile{toc}{\contentsline {subsection}{\numberline {4.8.2}The multivariate case}{65}{subsection.4.8.2}}
\newlabel{eq:kernel_mean}{{4.14}{65}{The multivariate case}{equation.4.8.14}{}}
\newlabel{eq:sum_multidim}{{4.15}{65}{The multivariate case}{equation.4.8.15}{}}
\@writefile{toc}{\contentsline {subsubsection}{Kernel development}{66}{section*.22}}
\newlabel{eq:parabolic-kernel-development-multivariate}{{4.16}{66}{Kernel development}{equation.4.8.16}{}}
\newlabel{eq:SpqLRd}{{4.17}{66}{Kernel development}{equation.4.8.17}{}}
\newlabel{subsec:Data-partition}{{4.8.2}{66}{Data partition}{section*.23}{}}
\@writefile{toc}{\contentsline {subsubsection}{Data partition}{66}{section*.23}}
\newlabel{eq:pavement}{{4.18}{67}{Data partition}{equation.4.8.18}{}}
\newlabel{eq:sum_partition_full}{{4.19}{67}{Data partition}{equation.4.8.19}{}}
\@writefile{lof}{\contentsline {figure}{\numberline {4.4}{\ignorespaces From bandwidths to partition (1D)\relax }}{68}{figure.caption.24}}
\newlabel{fig:1D_partition}{{4.4}{68}{From bandwidths to partition (1D)\relax }{figure.caption.24}{}}
\newlabel{eq:sum_partition_slim}{{4.20}{68}{Data partition}{equation.4.8.20}{}}
\@writefile{lof}{\contentsline {figure}{\numberline {4.5}{\ignorespaces From bandwidths to partition (2D)\relax }}{68}{figure.caption.25}}
\newlabel{fig:2D_partition}{{4.5}{68}{From bandwidths to partition (2D)\relax }{figure.caption.25}{}}
\newlabel{subsec:Fast-multivariate-sweeping}{{4.8.2}{69}{Fast multivariate sweeping algorithm}{section*.26}{}}
\@writefile{toc}{\contentsline {subsubsection}{Fast multivariate sweeping algorithm}{69}{section*.26}}
\newlabel{eq:Sidx}{{4.21}{69}{Fast multivariate sweeping algorithm}{equation.4.8.21}{}}
\newlabel{eq:2d_updating_1}{{4.22}{69}{Fast multivariate sweeping algorithm}{equation.4.8.22}{}}
\newlabel{eq:2d_updating_2}{{4.23}{69}{Fast multivariate sweeping algorithm}{equation.4.8.23}{}}
\@writefile{toc}{\contentsline {subsection}{\numberline {4.8.3}C++ API}{70}{subsection.4.8.3}}
\@writefile{toc}{\contentsline {subsection}{\numberline {4.8.4}Python API}{71}{subsection.4.8.4}}
\citation{hull2003options}
\citation{heitsch2003scenario}
\citation{koc2012optimal}
\@writefile{toc}{\contentsline {chapter}{\numberline {5}Calculating conditional expectation by trees}{72}{chapter.5}}
\@writefile{lof}{\addvspace {10\p@ }}
\@writefile{lot}{\addvspace {10\p@ }}
\newlabel{sec::tree}{{5}{72}{Calculating conditional expectation by trees}{chapter.5}{}}
\@writefile{lof}{\contentsline {figure}{\numberline {5.1}{\ignorespaces Trinomial tree\relax }}{72}{figure.caption.27}}
\newlabel{fig:trinomial}{{5.1}{72}{Trinomial tree\relax }{figure.caption.27}{}}
\@writefile{lof}{\contentsline {figure}{\numberline {5.2}{\ignorespaces Non recombining tree\relax }}{73}{figure.caption.28}}
\newlabel{fig:arbre}{{5.2}{73}{Non recombining tree\relax }{figure.caption.28}{}}
\@writefile{toc}{\contentsline {subsection}{\numberline {5.0.1}C++ API}{73}{subsection.5.0.1}}
\@writefile{toc}{\contentsline {subsubsection}{Calculating conditional expectation}{73}{section*.29}}
\@writefile{toc}{\contentsline {subsubsection}{Python API}{74}{section*.30}}
\newlabel{sec:pyTree}{{5.0.1}{74}{Python API}{section*.30}{}}
\@writefile{lol}{\contentsline {lstlisting}{../StOpt/test/python/unit/tree/testTree.py}{74}{lstlisting.5.-67}}
\@writefile{toc}{\contentsline {chapter}{\numberline {6}Continuation values objects and similar ones}{75}{chapter.6}}
\@writefile{lof}{\addvspace {10\p@ }}
\@writefile{lot}{\addvspace {10\p@ }}
\newlabel{sec:continuation}{{6}{75}{Continuation values objects and similar ones}{chapter.6}{}}
\@writefile{toc}{\contentsline {section}{\numberline {6.1}Continuation values objects with regression methods}{75}{section.6.1}}
\@writefile{toc}{\contentsline {subsection}{\numberline {6.1.1}Continuation values object}{75}{subsection.6.1.1}}
\newlabel{eq:X1}{{6.1}{75}{Continuation values object}{equation.6.1.1}{}}
\newlabel{eq:X2}{{6.2}{75}{Continuation values object}{equation.6.1.2}{}}
\@writefile{toc}{\contentsline {subsubsection}{C++ API}{76}{section*.31}}
\@writefile{toc}{\contentsline {subsubsection}{Python API}{78}{section*.32}}
\newlabel{subsec:pythonCont}{{6.1.1}{78}{Python API}{section*.32}{}}
\@writefile{lol}{\contentsline {lstlisting}{../StOpt/test/python/unit/continuation/testContinuation.py}{78}{lstlisting.6.-76}}
\@writefile{toc}{\contentsline {subsection}{\numberline {6.1.2}The GridAndRegressedValue object}{79}{subsection.6.1.2}}
\@writefile{toc}{\contentsline {subsubsection}{C++ API}{79}{section*.33}}
\@writefile{toc}{\contentsline {subsubsection}{Python API}{80}{section*.34}}
\@writefile{toc}{\contentsline {subsection}{\numberline {6.1.3}The continuation cut object}{80}{subsection.6.1.3}}
\newlabel{sec:contCutReg}{{6.1.3}{80}{The continuation cut object}{subsection.6.1.3}{}}
\@writefile{lof}{\contentsline {figure}{\numberline {6.1}{\ignorespaces Bellman cuts\relax }}{81}{figure.caption.35}}
\newlabel{cutBell}{{6.1}{81}{Bellman cuts\relax }{figure.caption.35}{}}
\newlabel{eq:coeffCut}{{6.3}{81}{The continuation cut object}{equation.6.1.3}{}}
\@writefile{toc}{\contentsline {subsubsection}{C++ API}{81}{section*.36}}
\@writefile{toc}{\contentsline {subsubsection}{Python API}{83}{section*.37}}
\newlabel{subsec:pythonContCut}{{6.1.3}{83}{Python API}{section*.37}{}}
\@writefile{lol}{\contentsline {lstlisting}{../StOpt/test/python/unit/continuation/testContinuationCut.py}{83}{lstlisting.6.-87}}
\@writefile{toc}{\contentsline {section}{\numberline {6.2}Continuation objects and associated with trees}{84}{section.6.2}}
\@writefile{toc}{\contentsline {subsection}{\numberline {6.2.1}Continuation object}{84}{subsection.6.2.1}}
\@writefile{toc}{\contentsline {subsubsection}{C++ API}{84}{section*.38}}
\@writefile{toc}{\contentsline {subsubsection}{Python API}{85}{section*.39}}
\@writefile{lol}{\contentsline {lstlisting}{../StOpt/test/python/unit/tree/testTree.py}{85}{lstlisting.6.-95}}
\@writefile{toc}{\contentsline {subsection}{\numberline {6.2.2}GridTreeValues}{85}{subsection.6.2.2}}
\@writefile{toc}{\contentsline {subsubsection}{Python API}{86}{section*.40}}
\@writefile{toc}{\contentsline {subsection}{\numberline {6.2.3}Continuation Cut with trees}{86}{subsection.6.2.3}}
\@writefile{toc}{\contentsline {subsubsection}{C++ API}{86}{section*.41}}
\@writefile{toc}{\contentsline {subsubsection}{Python API}{87}{section*.42}}
\@writefile{toc}{\contentsline {part}{III\hspace  {1em}Solving optimization problems with dynamic programming methods}{88}{part.3}}
\newlabel{part:dynProg}{{III}{89}{Solving optimization problems with dynamic programming methods}{part.3}{}}
\@writefile{toc}{\contentsline {chapter}{\numberline {7}Creating simulators}{89}{chapter.7}}
\@writefile{lof}{\addvspace {10\p@ }}
\@writefile{lot}{\addvspace {10\p@ }}
\@writefile{toc}{\contentsline {section}{\numberline {7.1}Simulators for regression methods}{89}{section.7.1}}
\@writefile{lol}{\contentsline {lstlisting}{../StOpt/StOpt/dp/SimulatorDPBase.h}{89}{lstlisting.7.-104}}
\@writefile{toc}{\contentsline {section}{\numberline {7.2}Simulators for trees}{91}{section.7.2}}
\@writefile{lol}{\contentsline {lstlisting}{../StOpt/StOpt/dp/SimulatorDPBaseTree.h}{91}{lstlisting.7.-105}}
\@writefile{lol}{\contentsline {lstlisting}{../StOpt/test/c++/tools/simulators/TrinomialTreeOUSimulator.cpp}{93}{lstlisting.7.-106}}
\@writefile{toc}{\contentsline {chapter}{\numberline {8}Using conditional expectation to solve simple problems}{95}{chapter.8}}
\@writefile{lof}{\addvspace {10\p@ }}
\@writefile{lot}{\addvspace {10\p@ }}
\@writefile{toc}{\contentsline {section}{\numberline {8.1}American option by regression}{95}{section.8.1}}
\@writefile{toc}{\contentsline {subsection}{\numberline {8.1.1}The American option valuing by Longstaff--Schwartz}{95}{subsection.8.1.1}}
\newlabel{StoppingTime}{{8.1}{95}{The American option valuing by Longstaff--Schwartz}{equation.8.1.1}{}}
\newlabel{Longstaff}{{6}{95}{{ Algorithm with regression [optimal exercise time estimation]} \relax }{algorithm.6}{}}
\@writefile{loa}{\contentsline {algorithm}{\numberline {6}{\ignorespaces { Algorithm with regression [optimal exercise time estimation]} \relax }}{95}{algorithm.6}}
\@writefile{toc}{\contentsline {subsubsection}{American option by regression with the C++ API}{96}{section*.43}}
\@writefile{toc}{\contentsline {subsubsection}{American option with the Python API}{96}{section*.44}}
\@writefile{lol}{\contentsline {lstlisting}{../StOpt/test/python/functional/utils/americanOption.py}{96}{lstlisting.8.-108}}
\@writefile{toc}{\contentsline {section}{\numberline {8.2}American options by tree}{97}{section.8.2}}
\newlabel{AmrVal}{{7}{97}{{ Algorithm with tree: Bellman value (0 interest rate)} \relax }{algorithm.7}{}}
\@writefile{loa}{\contentsline {algorithm}{\numberline {7}{\ignorespaces { Algorithm with tree: Bellman value (0 interest rate)} \relax }}{97}{algorithm.7}}
\@writefile{toc}{\contentsline {subsection}{\numberline {8.2.1}The American option by tree}{97}{subsection.8.2.1}}
\@writefile{lol}{\contentsline {lstlisting}{../StOpt/test/c++/functional/testAmericanOptionTree.cpp}{97}{lstlisting.8.-109}}
\@writefile{toc}{\contentsline {subsection}{\numberline {8.2.2}Python API}{97}{subsection.8.2.2}}
\@writefile{lol}{\contentsline {lstlisting}{../StOpt/test/python/functional/testAmericanOptionTree.py}{98}{lstlisting.8.-110}}
\citation{makassikis2008large}
\citation{vialle2008stochastic}
\@writefile{toc}{\contentsline {chapter}{\numberline {9}Using the general framework to manage stock problems }{99}{chapter.9}}
\@writefile{lof}{\addvspace {10\p@ }}
\@writefile{lot}{\addvspace {10\p@ }}
\newlabel{SecParal}{{9}{99}{Using the general framework to manage stock problems}{chapter.9}{}}
\@writefile{lof}{\contentsline {figure}{\numberline {9.1}{\ignorespaces Data to send to processor 3\relax }}{100}{figure.caption.45}}
\newlabel{Parallfig}{{9.1}{100}{Data to send to processor 3\relax }{figure.caption.45}{}}
\@writefile{toc}{\contentsline {section}{\numberline {9.1}General requirement about business object}{100}{section.9.1}}
\@writefile{lol}{\contentsline {lstlisting}{../StOpt/StOpt/dp/OptimizerBase.h}{100}{lstlisting.9.-111}}
\@writefile{toc}{\contentsline {section}{\numberline {9.2}Solving the problem using conditional expectation calculated by regressions}{102}{section.9.2}}
\@writefile{toc}{\contentsline {subsection}{\numberline {9.2.1}Requirement to use the framework }{102}{subsection.9.2.1}}
\@writefile{toc}{\contentsline {subsection}{\numberline {9.2.2}Classical regression}{103}{subsection.9.2.2}}
\@writefile{lol}{\contentsline {lstlisting}{../StOpt/StOpt/dp/OptimizerDPBase.h}{103}{lstlisting.9.-112}}
\citation{warin2012gas}
\@writefile{toc}{\contentsline {subsubsection}{The framework in optimization with classical regressions}{105}{section*.46}}
\newlabel{subsec:framework}{{9.2.2}{105}{The framework in optimization with classical regressions}{section*.46}{}}
\@writefile{lol}{\contentsline {lstlisting}{../StOpt/test/c++/tools/dp/DynamicProgrammingByRegressionDist.cpp}{107}{lstlisting.9.-116}}
\@writefile{lot}{\contentsline {table}{\numberline {9.1}{\ignorespaces  Which \texttt  {\fontdimen 2\font =0.4em\fontdimen 3\font =0.2em\fontdimen 4\font =0.1em\fontdimen 7\font =0.1em\hyphenchar \font =200TransitionStepRegression} object to use depending on the grid used and the type of parallelization used.\relax }}{108}{table.caption.47}}
\@writefile{toc}{\contentsline {subsubsection}{The framework in simulation with classical regressions}{108}{section*.48}}
\newlabel{subsec::simulation}{{9.2.2}{108}{The framework in simulation with classical regressions}{section*.48}{}}
\@writefile{lol}{\contentsline {lstlisting}{../StOpt/test/c++/tools/dp/SimulateRegressionDist.h}{109}{lstlisting.9.-119}}
\@writefile{lol}{\contentsline {lstlisting}{../StOpt/test/c++/tools/dp/SimulateRegressionControlDist.h}{112}{lstlisting.9.-122}}
\newlabel{RF1}{114}
\@writefile{lot}{\contentsline {table}{\numberline {9.2}{\ignorespaces  Which simulation object to use depending on the TransitionStepRegression object used.\relax }}{114}{table.caption.49}}
\@writefile{toc}{\contentsline {subsection}{\numberline {9.2.3}Regressions and cuts for linear continuous transition problems with some concavity, convexity features}{115}{subsection.9.2.3}}
\newlabel{sec:withCuts}{{9.2.3}{115}{Regressions and cuts for linear continuous transition problems with some concavity, convexity features}{subsection.9.2.3}{}}
\@writefile{lol}{\contentsline {lstlisting}{../StOpt/StOpt/dp/OptimizerDPCutBase.h}{115}{lstlisting.9.-123}}
\@writefile{toc}{\contentsline {subsubsection}{The framework in optimization using some cuts methods}{117}{section*.50}}
\newlabel{subsec:frameworkCut}{{9.2.3}{117}{The framework in optimization using some cuts methods}{section*.50}{}}
\@writefile{lol}{\contentsline {lstlisting}{../StOpt/test/c++/tools/dp/DynamicProgrammingByRegressionCutDist.cpp}{118}{lstlisting.9.-127}}
\@writefile{toc}{\contentsline {subsubsection}{The framework in simulation using cuts to approximate the Bellman values}{119}{section*.51}}
\newlabel{subsec::simulationCut}{{9.2.3}{119}{The framework in simulation using cuts to approximate the Bellman values}{section*.51}{}}
\@writefile{lol}{\contentsline {lstlisting}{../StOpt/test/c++/tools/dp/SimulateRegressionCutDist.h}{121}{lstlisting.9.-130}}
\@writefile{toc}{\contentsline {section}{\numberline {9.3}Solving the problem for $X^{x,t}_2$ stochastic}{122}{section.9.3}}
\@writefile{toc}{\contentsline {subsection}{\numberline {9.3.1}Requirement to use the framework }{122}{subsection.9.3.1}}
\@writefile{lol}{\contentsline {lstlisting}{../StOpt/StOpt/dp/OptimizerNoRegressionDPBase.h}{122}{lstlisting.9.-131}}
\@writefile{toc}{\contentsline {subsection}{\numberline {9.3.2}The framework in optimization}{124}{subsection.9.3.2}}
\@writefile{lol}{\contentsline {lstlisting}{../StOpt/test/c++/tools/dp/DynamicProgrammingPortfolioDist.cpp}{126}{lstlisting.9.-135}}
\@writefile{toc}{\contentsline {subsection}{\numberline {9.3.3}The framework in simulation}{127}{subsection.9.3.3}}
\@writefile{toc}{\contentsline {section}{\numberline {9.4}Solving stock problems with trees}{127}{section.9.4}}
\@writefile{toc}{\contentsline {subsection}{\numberline {9.4.1}Solving dynamic programming problems with control discretization}{127}{subsection.9.4.1}}
\@writefile{toc}{\contentsline {subsubsection}{Requirement to use the framework }{127}{section*.52}}
\@writefile{lol}{\contentsline {lstlisting}{../StOpt/StOpt/dp/OptimizerDPTreeBase.h}{127}{lstlisting.9.-136}}
\@writefile{toc}{\contentsline {subsubsection}{The framework}{130}{section*.53}}
\@writefile{toc}{\contentsline {subsection}{\numberline {9.4.2}Solving Dynamic Programming by solving LP problems}{133}{subsection.9.4.2}}
\@writefile{toc}{\contentsline {subsubsection}{Requirement to use the framework}{133}{section*.54}}
\@writefile{lol}{\contentsline {lstlisting}{ ../StOpt/StOpt/dp/OptimizerDPCutTreeBase.h}{133}{lstlisting.9.-144}}
\@writefile{toc}{\contentsline {subsubsection}{The framework in optimization using some cuts methods}{135}{section*.55}}
\@writefile{lol}{\contentsline {lstlisting}{../StOpt/test/c++/tools/dp/DynamicProgrammingByTreeCutDist.cpp}{136}{lstlisting.9.-148}}
\@writefile{toc}{\contentsline {subsubsection}{Using the framework in simulation}{137}{section*.56}}
\@writefile{lol}{\contentsline {lstlisting}{../StOpt/test/c++/tools/dp/SimulateTreeCutDist.h}{138}{lstlisting.9.-151}}
\@writefile{toc}{\contentsline {chapter}{\numberline {10}The Python API}{140}{chapter.10}}
\@writefile{lof}{\addvspace {10\p@ }}
\@writefile{lot}{\addvspace {10\p@ }}
\@writefile{toc}{\contentsline {section}{\numberline {10.1}Mapping to the framework}{140}{section.10.1}}
\@writefile{lol}{\contentsline {lstlisting}{../StOpt/test/python/functional/dp/TransitionStepRegressionDP.py}{140}{lstlisting.10.-152}}
\@writefile{lol}{\contentsline {lstlisting}{../StOpt/test/python/functional/dp/DynamicProgrammingByRegression.py}{141}{lstlisting.10.-153}}
\@writefile{lol}{\contentsline {lstlisting}{../StOpt/test/python/unit/global/testGlobal.py}{142}{lstlisting.10.-154}}
\@writefile{lol}{\contentsline {lstlisting}{../StOpt/test/python/functional/dp/DynamicProgrammingByRegressionHighLevel.py}{144}{lstlisting.10.-155}}
\@writefile{lol}{\contentsline {lstlisting}{../StOpt/test/python/functional/dp/SimulateRegressionControlHighLevel.py}{144}{lstlisting.10.-156}}
\@writefile{toc}{\contentsline {section}{\numberline {10.2}Special python binding}{145}{section.10.2}}
\@writefile{toc}{\contentsline {subsection}{\numberline {10.2.1}A first binding to use the framework}{145}{subsection.10.2.1}}
\@writefile{lol}{\contentsline {lstlisting}{../StOpt/test/python/unit/geners/testBinaryArchive.py}{146}{lstlisting.10.-157}}
\@writefile{toc}{\contentsline {subsection}{\numberline {10.2.2}Binding to store/read a regressor and some two dimensional array}{148}{subsection.10.2.2}}
\@writefile{lol}{\contentsline {lstlisting}{../StOpt/test/python/unit/geners/testSomeBinaryArchiveStorage.py}{148}{lstlisting.10.-158}}
\citation{warin2017variance}
\citation{motoczynski2000multidimensional}
\citation{beutner2007mean}
\citation{motoczynski2000multidimensional}
\citation{beutner2007mean}
\@writefile{toc}{\contentsline {chapter}{\numberline {11}Using the C++ framework to solve some hedging problem}{150}{chapter.11}}
\@writefile{lof}{\addvspace {10\p@ }}
\@writefile{lot}{\addvspace {10\p@ }}
\newlabel{chap:variance}{{11}{150}{Using the C++ framework to solve some hedging problem}{chapter.11}{}}
\@writefile{toc}{\contentsline {section}{\numberline {11.1}The problem}{150}{section.11.1}}
\citation{motoczynski2000multidimensional}
\citation{beutner2007mean}
\citation{schweizer1995variance}
\newlabel{argminL2}{{11.2}{151}{The problem}{equation.11.1.2}{}}
\@writefile{toc}{\contentsline {section}{\numberline {11.2}Theoretical algorithm}{151}{section.11.2}}
\newlabel{argminL2Bis}{{11.3}{152}{Theoretical algorithm}{equation.11.2.3}{}}
\newlabel{VDef}{{11.4}{152}{Theoretical algorithm}{equation.11.2.4}{}}
\newlabel{eq:globMin}{{11.5}{152}{Theoretical algorithm}{equation.11.2.5}{}}
\newlabel{eq:Balance}{{11.8}{152}{Theoretical algorithm}{equation.11.2.8}{}}
\newlabel{argminTer}{{11.9}{152}{Theoretical algorithm}{equation.11.2.9}{}}
\citation{bender2007forward}
\citation{gobet2005regression}
\newlabel{algoMeanVar3}{{8}{153}{Backward resolution for $\Lc ^2$ minimization problem avoiding conditional expectation iteration.\relax }{algorithm.8}{}}
\@writefile{loa}{\contentsline {algorithm}{\numberline {8}{\ignorespaces Backward resolution for ${\cal  L}^2$ minimization problem avoiding conditional expectation iteration.\relax }}{153}{algorithm.8}}
\newlabel{argminBack}{{11.10}{153}{Backward resolution for $\Lc ^2$ minimization problem avoiding conditional expectation iteration.\relax }{equation.11.2.10}{}}
\newlabel{remarkMeanVar}{{25}{153}{Theoretical algorithm}{Remark.25}{}}
\citation{bouchard2012monte}
\citation{warin2012gas}
\@writefile{toc}{\contentsline {section}{\numberline {11.3}Practical algorithm based on Algorithm \ref  {algoMeanVar3}}{154}{section.11.3}}
\newlabel{testCommand}{{9}{155}{Optimize minimal hedging position $(\hat \nu _{t_{i}}^{(l)}(k))_{l=1,\dots ,M}$ at date $t_{i-1}$\relax }{algorithm.9}{}}
\@writefile{loa}{\contentsline {algorithm}{\numberline {9}{\ignorespaces  Optimize minimal hedging position $(\mathaccentV {hat}05E\nu _{t_{i}}^{(l)}(k))_{l=1,\dots  ,M}$ at date $t_{i-1}$\relax }}{155}{algorithm.9}}
\newlabel{algoMeanVar4}{{10}{156}{Global backward resolution algorithm, optimal control and optimal variance calculation\relax }{algorithm.10}{}}
\@writefile{loa}{\contentsline {algorithm}{\numberline {10}{\ignorespaces Global backward resolution algorithm, optimal control and optimal variance calculation\relax }}{156}{algorithm.10}}
\@writefile{toc}{\contentsline {part}{IV\hspace  {1em}Semi-Lagrangian methods}{157}{part.4}}
\citation{ishii1990viscosity}
\citation{camilli1995approximation}
\@writefile{toc}{\contentsline {chapter}{\numberline {12}Theoretical background}{159}{chapter.12}}
\@writefile{lof}{\addvspace {10\p@ }}
\@writefile{lot}{\addvspace {10\p@ }}
\@writefile{toc}{\contentsline {section}{\numberline {12.1}Notation and regularity results}{159}{section.12.1}}
\newlabel{notation}{{12.1}{159}{Notation and regularity results}{section.12.1}{}}
\newlabel{coeff}{{12.1}{159}{Notation and regularity results}{equation.12.1.1}{}}
\newlabel{MaxDist}{{12.2}{159}{Notation and regularity results}{equation.12.1.2}{}}
\citation{munos2005consistency}
\citation{warin2016some}
\citation{warin2014adaptive}
\@writefile{toc}{\contentsline {section}{\numberline {12.2}Time discretization for HJB equation}{160}{section.12.2}}
\newlabel{hjbCamilli}{{12.3}{160}{Time discretization for HJB equation}{equation.12.2.3}{}}
\newlabel{hjbCamilli1}{{12.4}{160}{Time discretization for HJB equation}{equation.12.2.4}{}}
\newlabel{converDisH}{{2}{160}{Time discretization for HJB equation}{Proposition.2}{}}
\newlabel{LipschitVh}{{12.6}{160}{Time discretization for HJB equation}{equation.12.2.6}{}}
\@writefile{toc}{\contentsline {section}{\numberline {12.3}Space interpolation}{160}{section.12.3}}
\@writefile{toc}{\contentsline {chapter}{\numberline {13}C++ API}{162}{chapter.13}}
\@writefile{lof}{\addvspace {10\p@ }}
\@writefile{lot}{\addvspace {10\p@ }}
\@writefile{lol}{\contentsline {lstlisting}{../StOpt/StOpt/semilagrangien/SemiLagrangEspCond.h}{162}{lstlisting.13.-159}}
\citation{warin2016some}
\@writefile{lol}{\contentsline {lstlisting}{../StOpt/StOpt/semilagrangien/OptimizerSLBase.h}{163}{lstlisting.13.-160}}
\citation{warin2016some}
\@writefile{lol}{\contentsline {lstlisting}{../StOpt/test/c++/tools/semilagrangien/OptimizeSLCase3.cpp}{167}{lstlisting.13.-161}}
\@writefile{toc}{\contentsline {section}{\numberline {13.1}PDE resolution }{168}{section.13.1}}
\@writefile{lol}{\contentsline {lstlisting}{../StOpt/StOpt/semilagrangien/TransitionStepSemilagrang.h}{168}{lstlisting.13.-162}}
\@writefile{lot}{\contentsline {table}{\numberline {13.1}{\ignorespaces  Which \texttt  {\fontdimen 2\font =0.4em\fontdimen 3\font =0.2em\fontdimen 4\font =0.1em\fontdimen 7\font =0.1em\hyphenchar \font =200TransitionStepSemilagrang} object to use depending on the grid used and the type of parallelization used.\relax }}{170}{table.caption.57}}
\@writefile{toc}{\contentsline {section}{\numberline {13.2}Simulation framework}{170}{section.13.2}}
\@writefile{lol}{\contentsline {lstlisting}{../StOpt/test/c++/tools/semilagrangien/semiLagrangianSimuDist.cpp}{171}{lstlisting.13.-165}}
\@writefile{lol}{\contentsline {lstlisting}{../StOpt/test/c++/tools/semilagrangien/semiLagrangianSimuControlDist.cpp}{173}{lstlisting.13.-168}}
\newlabel{RF2}{175}
\@writefile{lot}{\contentsline {table}{\numberline {13.2}{\ignorespaces  Which simulation object to use depending on the TransitionStepSemilagrang object used.\relax }}{175}{table.caption.58}}
\@writefile{toc}{\contentsline {part}{V\hspace  {1em}An example with both dynamic programming with regression and PDE}{176}{part.5}}
\newlabel{part:NonEm}{{V}{177}{An example with both dynamic programming with regression and PDE}{part.5}{}}
\newlabel{eqVal}{{13.1}{177}{An example with both dynamic programming with regression and PDE}{equation.13.2.1}{}}
\newlabel{eqPDV}{{13.3}{178}{An example with both dynamic programming with regression and PDE}{equation.13.2.3}{}}
\newlabel{eqPDY}{{13.4}{178}{An example with both dynamic programming with regression and PDE}{equation.13.2.3}{}}
\@writefile{toc}{\contentsline {section}{\numberline {13.3}The dynamic programming with regression approach}{178}{section.13.3}}
\@writefile{lol}{\contentsline {lstlisting}{../StOpt/test/c++/tools/dp/OptimizeDPEmissive.cpp}{178}{lstlisting.13.-169}}
\@writefile{toc}{\contentsline {section}{\numberline {13.4}The PDE approach}{181}{section.13.4}}
\@writefile{lol}{\contentsline {lstlisting}{../StOpt/test/c++/tools/semilagrangien/OptimizeSLEmissive.cpp}{181}{lstlisting.13.-170}}
\@writefile{toc}{\contentsline {part}{VI\hspace  {1em}Stochastic Dual Dynamic Programming}{184}{part.6}}
\citation{pereira1991multi}
\@writefile{toc}{\contentsline {chapter}{\numberline {14}SDDP algorithm}{185}{chapter.14}}
\@writefile{lof}{\addvspace {10\p@ }}
\@writefile{lot}{\addvspace {10\p@ }}
\newlabel{chap:SDDP}{{14}{185}{SDDP algorithm}{chapter.14}{}}
\@writefile{toc}{\contentsline {section}{\numberline {14.1}Some general points about SDDP}{185}{section.14.1}}
\@writefile{toc}{\contentsline {paragraph}{Notations used\\}{185}{section*.59}}
\@writefile{toc}{\contentsline {paragraph}{Decision process \\}{185}{section*.60}}
\citation{pereira1991multi}
\citation{benders2005partitioning}
\newlabel{ProblemeGeneral}{{14.1}{186}{Decision process \\}{equation.14.1.1}{}}
\@writefile{toc}{\contentsline {paragraph}{Dynamic programming principle \\}{186}{section*.61}}
\newlabel{FctValInt}{{14.2}{186}{Dynamic programming principle \\}{equation.14.1.2}{}}
\newlabel{FctBel}{{14.3}{186}{Dynamic programming principle \\}{equation.14.1.3}{}}
\@writefile{toc}{\contentsline {paragraph}{SDDP algorithm \\}{186}{section*.62}}
\citation{pereira1999application}
\@writefile{toc}{\contentsline {section}{\numberline {14.2}A method, different algorithms}{187}{section.14.2}}
\@writefile{toc}{\contentsline {paragraph}{Notations \\}{187}{section*.63}}
\@writefile{toc}{\contentsline {subsection}{\numberline {14.2.1}The basic case}{187}{subsection.14.2.1}}
\newlabel{init}{{14.2.1}{188}{Initialization \\}{section*.64}{}}
\@writefile{toc}{\contentsline {paragraph}{Initialization \\}{188}{section*.64}}
\@writefile{toc}{\contentsline {paragraph}{Forward pass\\}{188}{section*.65}}
\@writefile{toc}{\contentsline {paragraph}{Backward pass\\}{188}{section*.66}}
\@writefile{toc}{\contentsline {paragraph}{Stopping test \\}{188}{section*.67}}
\@writefile{loa}{\contentsline {algorithm}{\numberline {11}{\ignorespaces Run of forward pass ($n^{th}$ iteration)\relax }}{189}{algorithm.11}}
\newlabel{alg:forward}{{11}{189}{Run of forward pass ($n^{th}$ iteration)\relax }{algorithm.11}{}}
\@writefile{toc}{\contentsline {subsection}{\numberline {14.2.2}Dependence of the random quantities}{189}{subsection.14.2.2}}
\@writefile{loa}{\contentsline {algorithm}{\numberline {12}{\ignorespaces Run of backward pass\relax }}{190}{algorithm.12}}
\newlabel{alg:backward}{{12}{190}{Run of backward pass\relax }{algorithm.12}{}}
\citation{pereira1999application}
\citation{pereira1999application}
\citation{gjelsvik1999algorithm}
\newlabel{FctValInt2}{{14.12}{191}{Dependence of the random quantities}{equation.14.2.12}{}}
\@writefile{toc}{\contentsline {subsection}{\numberline {14.2.3}Non-convexity and conditional cuts}{191}{subsection.14.2.3}}
\@writefile{loa}{\contentsline {algorithm}{\numberline {13}{\ignorespaces Run of backward pass with time-related random quantities (AR1 process)\relax }}{192}{algorithm.13}}
\newlabel{alg:backward_time_related}{{13}{192}{Run of backward pass with time-related random quantities (AR1 process)\relax }{algorithm.13}{}}
\citation{gjelsvik1999algorithm}
\@writefile{toc}{\contentsline {subsubsection}{A tree approach}{193}{section*.68}}
\@writefile{toc}{\contentsline {subsubsection}{A regression based approach}{193}{section*.69}}
\@writefile{toc}{\contentsline {paragraph}{Regression, stochastic dynamic programming and SDDP \\}{194}{section*.70}}
\@writefile{loa}{\contentsline {algorithm}{\numberline {14}{\ignorespaces Run of the backward pass with time-related (AR1) and non-convex random quantities\relax }}{195}{algorithm.14}}
\newlabel{alg:backward_time_related_conditional_cuts}{{14}{195}{Run of the backward pass with time-related (AR1) and non-convex random quantities\relax }{algorithm.14}{}}
\@writefile{toc}{\contentsline {section}{\numberline {14.3}C++ API}{197}{section.14.3}}
\@writefile{toc}{\contentsline {subsection}{\numberline {14.3.1}Inputs \\}{197}{subsection.14.3.1}}
\@writefile{lol}{\contentsline {lstlisting}{../StOpt/StOpt/sddp/OptimizerSDDPBase.h}{198}{lstlisting.14.-171}}
\@writefile{lol}{\contentsline {lstlisting}{../StOpt/StOpt/sddp/SimulatorSDDPBase.h}{199}{lstlisting.14.-172}}
\@writefile{lol}{\contentsline {lstlisting}{../StOpt/StOpt/sddp/SimulatorSDDPBaseTree.h}{200}{lstlisting.14.-173}}
\@writefile{toc}{\contentsline {subsection}{\numberline {14.3.2}Architecture}{202}{subsection.14.3.2}}
\@writefile{loa}{\contentsline {algorithm}{\numberline {15}{\ignorespaces Run of backwardforwardSDDP(),the main function)\relax }}{202}{algorithm.15}}
\@writefile{toc}{\contentsline {subsection}{\numberline {14.3.3}Implement your problem}{202}{subsection.14.3.3}}
\@writefile{loa}{\contentsline {algorithm}{\numberline {16}{\ignorespaces Run of \texttt  {\fontdimen 2\font =0.4em\fontdimen 3\font =0.2em\fontdimen 4\font =0.1em\fontdimen 7\font =0.1em\hyphenchar \font =200forwardSDDP} ($n^{th}$ iteration)\relax }}{203}{algorithm.16}}
\@writefile{toc}{\contentsline {subsubsection}{Implement your own \textbf  {TransitionOptimizer} class}{203}{section*.71}}
\@writefile{loa}{\contentsline {algorithm}{\numberline {17}{\ignorespaces Run of \texttt  {\fontdimen 2\font =0.4em\fontdimen 3\font =0.2em\fontdimen 4\font =0.1em\fontdimen 7\font =0.1em\hyphenchar \font =200backwardSDDP}\relax }}{204}{algorithm.17}}
\@writefile{lol}{\contentsline {lstlisting}{../StOpt/StOpt/sddp/OptimizerSDDPBase.h}{204}{lstlisting.14.-174}}
\@writefile{lol}{\contentsline {lstlisting}{../StOpt/StOpt/sddp/OptimizerSDDPBase.h}{205}{lstlisting.14.-175}}
\@writefile{lol}{\contentsline {lstlisting}{../StOpt/StOpt/sddp/OptimizerSDDPBase.h}{205}{lstlisting.14.-176}}
\@writefile{lol}{\contentsline {lstlisting}{../StOpt/StOpt/sddp/OptimizerSDDPBase.h}{205}{lstlisting.14.-177}}
\@writefile{toc}{\contentsline {subsubsection}{Implement your own \textbf  {Simulator} class}{206}{section*.72}}
\@writefile{toc}{\contentsline {subsubsection}{A simulator for the regression based method}{206}{section*.73}}
\@writefile{lol}{\contentsline {lstlisting}{../StOpt/StOpt/sddp/SimulatorSDDPBase.h}{206}{lstlisting.14.-178}}
\@writefile{lol}{\contentsline {lstlisting}{../StOpt/StOpt/sddp/SimulatorSDDPBase.h}{206}{lstlisting.14.-179}}
\@writefile{lol}{\contentsline {lstlisting}{../StOpt/StOpt/sddp/SimulatorSDDPBase.h}{206}{lstlisting.14.-180}}
\@writefile{lol}{\contentsline {lstlisting}{../StOpt/StOpt/sddp/SimulatorSDDPBase.h}{206}{lstlisting.14.-181}}
\@writefile{lol}{\contentsline {lstlisting}{../StOpt/StOpt/sddp/SimulatorSDDPBase.h}{206}{lstlisting.14.-182}}
\@writefile{toc}{\contentsline {subsubsection}{A simulator for the tree approach}{207}{section*.74}}
\@writefile{lol}{\contentsline {lstlisting}{../StOpt/StOpt/sddp/SimulatorSDDPBaseTree.h}{207}{lstlisting.14.-183}}
\@writefile{lol}{\contentsline {lstlisting}{../StOpt/StOpt/sddp/SimulatorSDDPBaseTree.h}{207}{lstlisting.14.-184}}
\@writefile{lol}{\contentsline {lstlisting}{../StOpt/StOpt/sddp/SimulatorSDDPBaseTree.h}{207}{lstlisting.14.-185}}
\@writefile{toc}{\contentsline {subsection}{\numberline {14.3.4}Set of parameters\\}{207}{subsection.14.3.4}}
\@writefile{toc}{\contentsline {subsubsection}{Implementing some regression based method}{207}{section*.75}}
\@writefile{lol}{\contentsline {lstlisting}{../StOpt/StOpt/sddp/backwardForwardSDDP.h}{208}{lstlisting.14.-186}}
\@writefile{toc}{\contentsline {subsubsection}{Implementing a tree based method}{208}{section*.76}}
\@writefile{lol}{\contentsline {lstlisting}{../StOpt/StOpt/sddp/backwardForwardSDDPTree.h}{208}{lstlisting.14.-187}}
\citation{pfeiffer2012two}
\@writefile{toc}{\contentsline {subsection}{\numberline {14.3.5}The black box\\}{209}{subsection.14.3.5}}
\@writefile{toc}{\contentsline {subsection}{\numberline {14.3.6}Outputs \\}{209}{subsection.14.3.6}}
\@writefile{lof}{\contentsline {figure}{\numberline {14.1}{\ignorespaces Current architecture of the generic SDDP unit\relax }}{210}{figure.caption.77}}
\newlabel{archi}{{14.1}{210}{Current architecture of the generic SDDP unit\relax }{figure.caption.77}{}}
\@writefile{toc}{\contentsline {section}{\numberline {14.4}Python API (only for regression based methods)}{210}{section.14.4}}
\@writefile{lol}{\contentsline {lstlisting}{../StOpt/test/c++/python/Pybind11SDDPOptimizers.cpp}{211}{lstlisting.14.-189}}
\@writefile{lol}{\contentsline {lstlisting}{../StOpt/test/python/functional/testDemandSDDP.py}{212}{lstlisting.14.-190}}
\@writefile{toc}{\contentsline {part}{VII\hspace  {1em}Nesting Monte Carlo for general non linear PDEs}{215}{part.7}}
\citation{warin2018nesting}
\citation{warin2018monte}
\citation{henry2016branching}
\citation{warin2017variations}
\citation{warin2018nesting}
\citation{warin2017variations}
\newlabel{part:nesting}{{VII}{216}{Nesting Monte Carlo for general non linear PDEs}{part.7}{}}
\newlabel{eqPDEFull}{{14.23}{216}{Nesting Monte Carlo for general non linear PDEs}{equation.14.4.23}{}}
\newlabel{rho}{{14.24}{216}{Nesting Monte Carlo for general non linear PDEs}{equation.14.4.24}{}}
\newlabel{eq:brownRenorm}{{14.26}{217}{Nesting Monte Carlo for general non linear PDEs}{equation.14.4.26}{}}
\newlabel{eq:estimFull1}{{14.28}{218}{Nesting Monte Carlo for general non linear PDEs}{equation.14.4.28}{}}
\citation{warin2018nesting}
\citation{warin2018nesting}
\newlabel{defPhi}{{14.29}{219}{Nesting Monte Carlo for general non linear PDEs}{equation.14.4.29}{}}
\newlabel{algoMC1}{{18}{219}{Outer Monte Carlo algorithm ($V$ generates unit Gaussian RV, $\tilde V$ generates RV with gamma law density)\relax }{algorithm.18}{}}
\@writefile{loa}{\contentsline {algorithm}{\numberline {18}{\ignorespaces  Outer Monte Carlo algorithm ($V$ generates unit Gaussian RV, $\mathaccentV {tilde}07EV$ generates RV with gamma law density)\relax }}{219}{algorithm.18}}
\newlabel{algoMC2}{{19}{220}{Inner Monte Carlo algorithm where $t$ is the current time, $x$ the array of particles positions of size $m \times d$, and $l$ the nesting level.\relax }{algorithm.19}{}}
\@writefile{loa}{\contentsline {algorithm}{\numberline {19}{\ignorespaces  Inner Monte Carlo algorithm where $t$ is the current time, $x$ the array of particles positions of size $m \times d$, and $l$ the nesting level.\relax }}{220}{algorithm.19}}
\@writefile{toc}{\contentsline {part}{VIII\hspace  {1em}Some test cases description}{221}{part.8}}
\citation{bouchard2017numerical}
\citation{bouchard2017numerical}
\citation{bouchard2017numerical}
\@writefile{toc}{\contentsline {chapter}{\numberline {15}Some test cases description in C++}{222}{chapter.15}}
\@writefile{lof}{\addvspace {10\p@ }}
\@writefile{lot}{\addvspace {10\p@ }}
\@writefile{toc}{\contentsline {section}{\numberline {15.1}American option}{222}{section.15.1}}
\@writefile{toc}{\contentsline {subsection}{\numberline {15.1.1}testAmerican}{222}{subsection.15.1.1}}
\@writefile{toc}{\contentsline {subsubsection}{testAmericanGridKernelConstBasket1D}{223}{section*.84}}
\@writefile{toc}{\contentsline {subsubsection}{testAmericanGridKernelLinearBasket1D}{223}{section*.85}}
\@writefile{toc}{\contentsline {subsubsection}{testAmericanGlobalBasket3D}{224}{section*.94}}
\@writefile{toc}{\contentsline {subsection}{\numberline {15.1.2}testAmericanConvex}{224}{subsection.15.1.2}}
\citation{jaillet2004valuation}
\@writefile{toc}{\contentsline {subsection}{\numberline {15.1.3}testAmericanForSparse}{225}{subsection.15.1.3}}
\@writefile{toc}{\contentsline {subsection}{\numberline {15.1.4}testAmericanOptionCorrel}{225}{subsection.15.1.4}}
\@writefile{toc}{\contentsline {subsection}{\numberline {15.1.5}testAmericanOptionTree}{225}{subsection.15.1.5}}
\citation{jaillet2004valuation}
\@writefile{toc}{\contentsline {section}{\numberline {15.2}testSwingOption}{226}{section.15.2}}
\newlabel{sec:testSwingOption}{{15.2}{226}{testSwingOption}{section.15.2}{}}
\@writefile{toc}{\contentsline {subsection}{\numberline {15.2.1}testSwingOption2D}{226}{subsection.15.2.1}}
\newlabel{subsec:swing2D}{{15.2.1}{226}{testSwingOption2D}{subsection.15.2.1}{}}
\citation{warin2012gas}
\@writefile{toc}{\contentsline {subsection}{\numberline {15.2.2}testSwingOption3}{227}{subsection.15.2.2}}
\@writefile{toc}{\contentsline {subsection}{\numberline {15.2.3}testSwingOptimSimu / testSwingOptimSimuMpi}{227}{subsection.15.2.3}}
\@writefile{toc}{\contentsline {subsection}{\numberline {15.2.4}testSwingOptimSimuWithHedge}{227}{subsection.15.2.4}}
\@writefile{toc}{\contentsline {subsection}{\numberline {15.2.5}testSwingOptimSimuND / testSwingOptimSimuNDMpi}{227}{subsection.15.2.5}}
\citation{warin2012gas}
\citation{warin2012gas}
\citation{warin2012gas}
\citation{warin2016some}
\@writefile{toc}{\contentsline {section}{\numberline {15.3}Gas Storage}{228}{section.15.3}}
\@writefile{toc}{\contentsline {subsection}{\numberline {15.3.1}testGasStorage / testGasStorageMpi}{228}{subsection.15.3.1}}
\newlabel{sec:testGasStorage}{{15.3.1}{228}{testGasStorage / testGasStorageMpi}{subsection.15.3.1}{}}
\citation{warin2012gas}
\citation{warin2012gas}
\citation{warin2012gas}
\@writefile{toc}{\contentsline {subsection}{\numberline {15.3.2}testGasStorageCut / testGasStorageCutMpi}{229}{subsection.15.3.2}}
\@writefile{toc}{\contentsline {subsubsection}{testSimpleStorageCut}{229}{section*.111}}
\@writefile{toc}{\contentsline {subsubsection}{testSimpleStorageCutDist}{229}{section*.112}}
\@writefile{toc}{\contentsline {subsubsection}{testSimpleStorageMultipleFileCutDist}{229}{section*.113}}
\@writefile{toc}{\contentsline {subsection}{\numberline {15.3.3}testGasStorageTree/testGasStorageTreeMpi}{229}{subsection.15.3.3}}
\@writefile{toc}{\contentsline {subsection}{\numberline {15.3.4}testGasStorageTreeCut/testGasStorageTreeCutMpi}{229}{subsection.15.3.4}}
\@writefile{toc}{\contentsline {subsection}{\numberline {15.3.5}testGasStorageKernel}{230}{subsection.15.3.5}}
\@writefile{toc}{\contentsline {subsubsection}{testSimpleStorageKernel}{230}{section*.114}}
\@writefile{toc}{\contentsline {subsection}{\numberline {15.3.6}testGasStorageVaryingCavity}{230}{subsection.15.3.6}}
\@writefile{toc}{\contentsline {subsection}{\numberline {15.3.7}testGasStorageSwitchingCostMpi}{230}{subsection.15.3.7}}
\@writefile{toc}{\contentsline {subsection}{\numberline {15.3.8}testGasStorageSDDP}{231}{subsection.15.3.8}}
\@writefile{toc}{\contentsline {subsection}{\numberline {15.3.9}testGasStorageSDDPTree}{231}{subsection.15.3.9}}
\@writefile{toc}{\contentsline {subsubsection}{testSimpleStorageDeterministicCutTree}{231}{section*.118}}
\@writefile{toc}{\contentsline {subsubsection}{testSimpleStorageCutTree}{231}{section*.119}}
\@writefile{toc}{\contentsline {subsubsection}{testSimpleStorageSDDPTree1D1Step}{231}{section*.120}}
\citation{barndorff1997processes}
\@writefile{toc}{\contentsline {section}{\numberline {15.4}testLake / testLakeMpi}{232}{section.15.4}}
\@writefile{toc}{\contentsline {section}{\numberline {15.5}testOptionNIGL2}{232}{section.15.5}}
\@writefile{toc}{\contentsline {section}{\numberline {15.6}testDemandSDDP}{232}{section.15.6}}
\@writefile{toc}{\contentsline {section}{\numberline {15.7}Reservoir variations with SDDP}{233}{section.15.7}}
\@writefile{toc}{\contentsline {subsection}{\numberline {15.7.1}testReservoirWithInflowsSDDP}{233}{subsection.15.7.1}}
\newlabel{sec:testReservoirWithInflowsSDDP}{{15.7.1}{233}{testReservoirWithInflowsSDDP}{subsection.15.7.1}{}}
\@writefile{toc}{\contentsline {subsection}{\numberline {15.7.2}testStorageWithInflowsSDDP}{234}{subsection.15.7.2}}
\newlabel{sec:testStorageWithInflowsSDDP}{{15.7.2}{234}{testStorageWithInflowsSDDP}{subsection.15.7.2}{}}
\@writefile{toc}{\contentsline {subsection}{\numberline {15.7.3}testStorageWithInflowsAndMarketSDDP}{234}{subsection.15.7.3}}
\citation{warin2016some}
\@writefile{toc}{\contentsline {section}{\numberline {15.8}Semi-Lagrangian}{235}{section.15.8}}
\@writefile{toc}{\contentsline {subsection}{\numberline {15.8.1}testSemiLagrangCase1/testSemiLagrangCase1}{235}{subsection.15.8.1}}
\citation{warin2016some}
\citation{warin2016some}
\@writefile{toc}{\contentsline {subsection}{\numberline {15.8.2}testSemiLagrangCase2/testSemiLagrangCase2}{236}{subsection.15.8.2}}
\@writefile{toc}{\contentsline {subsection}{\numberline {15.8.3}testSemiLagrangCase2/testSemiLagrangCase2}{236}{subsection.15.8.3}}
\@writefile{toc}{\contentsline {section}{\numberline {15.9}Non emimissive test case}{237}{section.15.9}}
\@writefile{toc}{\contentsline {subsection}{\numberline {15.9.1}testDPNonEmissive}{237}{subsection.15.9.1}}
\@writefile{toc}{\contentsline {subsection}{\numberline {15.9.2}testSLNonEmissive}{237}{subsection.15.9.2}}
\@writefile{toc}{\contentsline {section}{\numberline {15.10}Nesting for Non Linear PDE's}{237}{section.15.10}}
\@writefile{toc}{\contentsline {subsection}{\numberline {15.10.1}Some HJB test}{237}{subsection.15.10.1}}
\newlabel{eq:semiAnal}{{15.3}{237}{Some HJB test}{equation.15.10.3}{}}
\@writefile{toc}{\contentsline {subsubsection}{testHJCConst}{237}{section*.153}}
\citation{zariphopoulou2001solution}
\@writefile{toc}{\contentsline {subsubsection}{testHJCExact}{238}{section*.154}}
\@writefile{toc}{\contentsline {subsubsection}{testHJBEuler}{238}{section*.155}}
\@writefile{toc}{\contentsline {subsection}{\numberline {15.10.2}Some Toy example: testUD2UTou}{238}{subsection.15.10.2}}
\@writefile{toc}{\contentsline {subsection}{\numberline {15.10.3}Some Portfolio optimization}{238}{subsection.15.10.3}}
\newlabel{prob-portefeuille}{{15.4}{238}{Some Portfolio optimization}{equation.15.10.4}{}}
\newlabel{zariphopoulouND}{{15.5}{239}{Some Portfolio optimization}{equation.15.10.5}{}}
\@writefile{toc}{\contentsline {subsubsection}{testPortfolioExact}{239}{section*.156}}
\@writefile{toc}{\contentsline {subsubsection}{testPortfolioEuler}{239}{section*.157}}
\citation{ludkovski2018simulation}
\citation{alasseur2018regression}
\@writefile{toc}{\contentsline {chapter}{\numberline {16}Some python test cases description}{240}{chapter.16}}
\@writefile{lof}{\addvspace {10\p@ }}
\@writefile{lot}{\addvspace {10\p@ }}
\@writefile{toc}{\contentsline {section}{\numberline {16.1}Microgrid Management}{240}{section.16.1}}
\@writefile{toc}{\contentsline {subsection}{\numberline {16.1.1}testMicrogridBangBang}{240}{subsection.16.1.1}}
\newlabel{sec:testMicrogridBangBang}{{16.1.1}{240}{testMicrogridBangBang}{subsection.16.1.1}{}}
\@writefile{toc}{\contentsline {subsection}{\numberline {16.1.2}testMicrogrid}{240}{subsection.16.1.2}}
\newlabel{sec:testMicrogrid}{{16.1.2}{240}{testMicrogrid}{subsection.16.1.2}{}}
\citation{ludkovski2018simulation}
\citation{ludkovski2018simulation}
\@writefile{toc}{\contentsline {section}{\numberline {16.2}Dynamic Emulation Algorithm (DEA)}{241}{section.16.2}}
\@writefile{toc}{\contentsline {subsection}{\numberline {16.2.1}testMicrogridDEA}{241}{subsection.16.2.1}}
\newlabel{sec:DEA}{{16.2.1}{241}{testMicrogridDEA}{subsection.16.2.1}{}}
\bibstyle{plain}
\bibdata{MyBib}
\newlabel{fig:sobol2D}{{16.1a}{242}{Sobol-2D QMC sequence\relax }{figure.caption.158}{}}
\newlabel{sub@fig:sobol2D}{{a}{242}{Sobol-2D QMC sequence\relax }{figure.caption.158}{}}
\newlabel{fig:sobol1D}{{16.1b}{242}{Gridded design \relax }{figure.caption.158}{}}
\newlabel{sub@fig:sobol1D}{{b}{242}{Gridded design \relax }{figure.caption.158}{}}
\@writefile{lof}{\contentsline {figure}{\numberline {16.1}{\ignorespaces Illustration of two simulation designs. In both panels the $X_t$-coordinate is on the x-axis and $I_t$ on the y-axis.\relax }}{242}{figure.caption.158}}
\newlabel{fig:designSpecification}{{16.1}{242}{Illustration of two simulation designs. In both panels the $X_t$-coordinate is on the x-axis and $I_t$ on the y-axis.\relax }{figure.caption.158}{}}
\bibcite{alasseur2018regression}{1}
\bibcite{azaiez1993methodes}{2}
\bibcite{barndorff1997processes}{3}
\bibcite{bender2007forward}{4}
\bibcite{benders2005partitioning}{5}
\bibcite{beutner2007mean}{6}
\bibcite{bouchard2017numerical}{7}
\bibcite{bouchard2012monte}{8}
\bibcite{bungartz1992dunne}{9}
\bibcite{bungartz1996concepts}{10}
\bibcite{bungartz1997multigrid}{11}
\bibcite{bungartz2004sparse}{12}
\bibcite{camilli1995approximation}{13}
\bibcite{feinerman1974polynomial}{14}
\bibcite{fleming2006controlled}{15}
\bibcite{gerstner2003dimension}{16}
\bibcite{gjelsvik1999algorithm}{17}
\bibcite{gobet2005regression}{18}
\bibcite{griebel1998adaptive}{19}
\bibcite{griebel2005sparse}{20}
\bibcite{heitsch2003scenario}{21}
\bibcite{henry2016branching}{22}
\bibcite{hull2003options}{23}
\bibcite{ishii1990viscosity}{24}
\bibcite{jaillet2004valuation}{25}
\bibcite{jakeman2011local}{26}
\bibcite{koc2012optimal}{27}
\bibcite{langrene2017fast}{28}
\bibcite{ludkovski2018simulation}{29}
\bibcite{ma2009adaptive}{30}
\bibcite{magnani2009convex}{31}
\bibcite{makassikis2008large}{32}
\bibcite{motoczynski2000multidimensional}{33}
\bibcite{munos2005consistency}{34}
\bibcite{pereira1999application}{35}
\bibcite{pereira1991multi}{36}
\bibcite{pfeiffer2012two}{37}
\bibcite{pfluger2010spatially}{38}
\bibcite{quarteroni2000methodes}{39}
\bibcite{schweizer1995variance}{40}
\bibcite{scott2015multivariate}{41}
\bibcite{soardi1984serie}{42}
\bibcite{vialle2008stochastic}{43}
\bibcite{wand1994fast}{44}
\bibcite{warin2012gas}{45}
\bibcite{warin2014adaptive}{46}
\bibcite{warin2016some}{47}
\bibcite{warin2017variance}{48}
\bibcite{warin2017variations}{49}
\bibcite{warin2018monte}{50}
\bibcite{warin2018nesting}{51}
\bibcite{zariphopoulou2001solution}{52}
