#FIG 3.2  Produced by xfig version 3.2.6a
Landscape
Center
Metric
A4
100.00
Single
-2
1200 2
2 1 0 1 0 7 50 -1 -1 0.000 0 0 -1 0 0 9
	 675 5625 1575 5175 2475 5625 3375 5625 4275 5175 5175 5175
	 6075 5625 6975 5625 7875 5175
2 1 0 1 0 7 50 -1 -1 0.000 0 0 -1 0 0 8
	 1575 5175 2475 5175 3375 5625 4275 5625 5175 5175 6075 5175
	 6975 4725 7875 5175
2 1 0 1 0 7 50 -1 -1 0.000 0 0 -1 0 0 9
	 675 5625 1575 5625 2475 5175 3375 5175 4275 4725 5175 5175
	 6075 4725 6975 4725 7875 4725
2 1 0 1 0 7 50 -1 -1 0.000 0 0 -1 0 0 6
	 1575 5175 2475 4725 3375 4725 4275 4275 5175 4275 6075 4275
2 1 0 1 0 7 50 -1 -1 0.000 0 0 -1 0 0 4
	 2475 4725 3375 5175 4275 5625 6075 5625
2 1 0 1 0 7 50 -1 -1 0.000 0 0 -1 0 0 3
	 1575 5625 2475 5625 3375 6075
2 1 0 1 0 7 50 -1 -1 0.000 0 0 -1 0 0 2
	 2475 5625 3375 5175
2 1 0 1 0 7 50 -1 -1 0.000 0 0 -1 0 0 5
	 3375 4725 4275 5175 5175 4725 6075 5175 7875 5175
2 1 0 1 0 7 50 -1 -1 0.000 0 0 -1 0 0 7
	 2475 4725 3375 4275 4275 4275 5175 4725 6075 4725 6975 4275
	 7875 4275
2 1 0 1 0 7 50 -1 -1 0.000 0 0 -1 0 0 6
	 3375 4725 4275 4725 5175 4725 6075 4275 6975 4725 7875 4275
2 1 0 1 0 7 50 -1 -1 0.000 0 0 -1 0 0 1
	 4275 4500
2 1 0 1 0 7 50 -1 -1 0.000 0 0 -1 0 0 5
	 4275 4725 5175 4275 6075 3825 6975 3825 7875 4275
2 1 0 1 0 7 50 -1 -1 0.000 0 0 -1 0 0 3
	 3375 4275 4275 3825 5175 4275
2 1 0 1 0 7 50 -1 -1 0.000 0 0 -1 0 0 4
	 4275 3825 6075 3825 6975 4275 7875 3825
2 1 0 1 0 7 50 -1 -1 0.000 0 0 -1 0 0 3
	 6075 4275 6975 3825 7875 3825
2 1 0 1 0 7 50 -1 -1 0.000 0 0 -1 0 0 3
	 4275 3825 5175 3375 6075 4275
2 1 0 1 0 7 50 -1 -1 0.000 0 0 -1 0 0 4
	 5175 3375 6075 3825 6975 3375 7875 3375
2 1 0 1 0 7 50 -1 -1 0.000 0 0 -1 0 0 3
	 5175 3375 6075 3375 6975 4275
2 1 0 1 0 7 50 -1 -1 0.000 0 0 -1 0 0 3
	 6075 3375 6975 3375 7875 3825
2 1 0 1 0 7 50 -1 -1 0.000 0 0 -1 0 0 2
	 6075 3375 6975 3825
2 1 0 1 0 7 50 -1 -1 0.000 0 0 -1 0 0 2
	 6975 3375 7875 4275
2 1 0 1 0 7 50 -1 -1 0.000 0 0 -1 0 0 4
	 5175 5625 6075 5175 6975 5625 7875 5625
2 1 0 1 0 7 50 -1 -1 0.000 0 0 -1 0 0 3
	 6075 5625 6975 5175 7875 4725
2 1 0 1 0 7 50 -1 -1 0.000 0 0 -1 0 0 2
	 6975 5175 7875 5625
2 1 0 1 0 7 50 -1 -1 0.000 0 0 -1 0 0 2
	 6975 4275 7875 4725
2 1 0 1 0 7 50 -1 -1 0.000 0 0 -1 0 0 3
	 4275 4275 5175 3825 6075 3375
2 1 0 1 0 7 50 -1 -1 0.000 0 0 -1 0 0 2
	 5175 3825 6075 4275
2 1 0 1 0 7 50 -1 -1 0.000 0 0 -1 0 0 6
	 3375 6075 4275 5625 5175 6075 6075 5625 6975 6075 7875 5625
2 1 0 1 0 7 50 -1 -1 0.000 0 0 -1 0 0 7
	 2475 6075 3375 5625 4275 6075 5175 5625 6075 6075 6975 5625
	 7875 6075
2 1 0 1 0 7 50 -1 -1 0.000 0 0 -1 0 0 2
	 6975 3825 7875 3375
2 1 0 1 0 7 50 -1 -1 0.000 0 0 -1 0 0 3
	 675 5625 1575 6075 2475 5625
2 1 0 1 0 7 50 -1 -1 0.000 0 0 -1 0 0 8
	 1575 5625 2475 6075 3375 6525 4275 6075 5175 6525 6075 6075
	 6975 6525 7875 6075
2 1 0 1 0 7 50 -1 -1 0.000 0 0 -1 0 0 3
	 5175 4275 6075 4725 6975 5175
2 1 0 1 0 7 50 -1 -1 0.000 0 0 -1 0 0 6
	 3375 6075 4275 6525 5175 6075 6075 6525 6975 6075 7875 6525
2 1 0 1 0 7 50 -1 -1 0.000 0 0 -1 0 0 3
	 1575 6075 2475 6525 3375 6075
2 1 0 1 0 7 50 -1 -1 0.000 0 0 -1 0 0 2
	 1575 6075 2475 6075
2 1 0 1 0 7 50 -1 -1 0.000 0 0 -1 0 0 2
	 2475 6525 7875 6525
2 1 0 1 0 7 50 -1 -1 0.000 0 0 -1 0 0 6
	 3375 6525 4275 6975 5175 6525 6075 6975 6975 6525 7875 6975
2 1 0 1 0 7 50 -1 -1 0.000 0 0 -1 0 0 5
	 2475 6525 3375 6975 4275 7425 5175 7875 7875 7875
2 1 0 1 0 7 50 -1 -1 0.000 0 0 -1 0 0 2
	 3375 6975 7875 6975
2 1 0 1 0 7 50 -1 -1 0.000 0 0 -1 0 0 5
	 4275 6525 5175 6975 6075 7425 6975 7875 7875 7425
2 1 0 1 0 7 50 -1 -1 0.000 0 0 -1 0 0 3
	 6075 7425 6975 6975 7875 7425
2 1 0 1 0 7 50 -1 -1 0.000 0 0 -1 0 0 2
	 6075 6975 7875 7875
2 1 0 1 0 7 50 -1 -1 0.000 0 0 -1 0 0 2
	 6075 7425 7875 7425
2 1 0 1 0 7 50 -1 -1 0.000 0 0 -1 0 0 2
	 6975 6975 7875 6525
2 1 0 1 0 7 50 -1 -1 0.000 0 0 -1 0 0 3
	 4275 6975 5175 7425 6075 6975
2 1 0 1 0 7 50 -1 -1 0.000 0 0 -1 0 0 2
	 4275 7425 6075 7425
2 1 0 1 0 7 50 -1 -1 0.000 0 0 -1 0 0 2
	 5175 7875 6075 6975
2 1 0 1 0 7 50 -1 -1 0.000 0 0 -1 0 0 2
	 5175 7875 6075 7425
2 1 0 1 0 7 50 -1 -1 0.000 0 0 -1 0 0 2
	 6075 7875 6975 6975
2 1 0 1 0 7 50 -1 -1 0.000 0 0 -1 0 0 2
	 6075 7875 6975 7425
2 1 0 1 0 7 50 -1 -1 0.000 0 0 -1 0 0 2
	 6075 6525 6975 6975
2 1 0 1 0 7 50 -1 -1 0.000 0 0 -1 0 0 2
	 4275 7425 6075 6525
2 1 0 1 0 7 50 -1 -1 0.000 0 0 -1 0 0 2
	 3375 6975 4275 6525
2 1 0 1 0 7 50 -1 -1 0.000 0 0 -1 0 0 2
	 6975 7425 7875 6975
2 1 0 1 0 7 50 -1 -1 0.000 0 0 -1 0 0 2
	 6975 7875 7875 6975
2 1 0 1 0 7 50 -1 -1 0.000 0 0 -1 0 0 2
	 2475 5175 3375 4725
2 1 0 1 0 7 50 -1 -1 0.000 0 0 -1 0 0 2
	 3375 4275 4275 4725
2 1 0 1 0 7 50 -1 -1 0.000 0 0 -1 1 0 2
	0 0 1.00 60.00 120.00
	 675 8550 675 2250
2 1 0 1 0 7 50 -1 -1 0.000 0 0 -1 1 0 2
	0 0 1.00 60.00 120.00
	 225 5625 11475 5625
4 0 0 50 -1 0 18 0.0000 4 195 600 9000 6525 Time\001
4 0 0 50 -1 0 18 0.0000 4 195 1080 900 3375 X  values\001
4 0 0 50 -1 0 18 0.0000 4 165 90 9675 6525 t\001
4 0 0 50 -1 0 12 0.0000 4 120 60 1125 3510 t\001
